[
   {
      "address": "200 mere gamelin trois-rivieres g8t 1h1",
      "isFollowUpImportant": "false",
      "locX": "46.38765",
      "locY": "-72.538027",
      "pid": "P087819"
   },
   {
      "address": "1368 boul, des chenaux, trois-rivieres g9a 1a1",
      "isFollowUpImportant": "false",
      "locX": "46.3572623",
      "locY": "-72.5405516999999",
      "pid": "P039906"
   },
   {
      "address": "1940 Rue Notre Dame Centre, Trois-Rivières, QC G9A 4Y5, Canada",
      "isFollowUpImportant": "false",
      "locX": "46.3370758999999",
      "locY": "-72.5442451999999",
      "pid": "P078692"
   },
   {
      "address": "755 jutras trois-rivieres g9a3h8",
      "isFollowUpImportant": "false",
      "locX": "46.35802",
      "locY": "-72.553285",
      "pid": "P077142"
   },
   {
      "address": "1893 LAJOIE, TROIS-RIVIERES, G8Z 3G1",
      "isFollowUpImportant": "false",
      "locX": "46.354759",
      "locY": "-72.5595879",
      "pid": "P000234"
   },
   {
      "address": "6950 Rue de Honfleur, Trois-Rivières, QC G9C 1L1, Canada",
      "isFollowUpImportant": "true",
      "locX": "46.360048",
      "locY": "-72.6226169999999",
      "pid": "P051457"
   },
   {
      "address": "1700 notre-dame, trois-rivieres G9A 6G5",
      "isFollowUpImportant": "false",
      "locX": "46.3394633",
      "locY": "-72.5426627",
      "pid": "P054953"
   },
   {
      "address": "790 whitehead, trois-rivieres G9A 3m2 ",
      "isFollowUpImportant": "true",
      "locX": "46.3552639999999",
      "locY": "-72.550288",
      "pid": "P080727"
   },
   {
      "address": "487 gingras, trosi-rivieres g9a 3j9 ",
      "isFollowUpImportant": "false",
      "locX": "46.3584874999999",
      "locY": "-72.5498971",
      "pid": "P085611"
   },
   {
      "address": "757 ste-cecile trois-rivieres g9a 1l1 ",
      "isFollowUpImportant": "false",
      "locX": "46.3497613",
      "locY": "-72.5411120999999",
      "pid": "P049735"
   },
   {
      "address": "774 ste-angele trois-rivieres g9a 1m6 ",
      "isFollowUpImportant": "true",
      "locX": "46.3495451",
      "locY": "-72.54151",
      "pid": "P031310"
   },
   {
      "address": "1417 laviolette trois-rivieres g9a 1w5 ",
      "isFollowUpImportant": "true",
      "locX": "46.3522627999999",
      "locY": "-72.549982",
      "pid": "P057099"
   },
   {
      "address": "84 chemin du passage, trois-rivieres G8t 8H6 ",
      "isFollowUpImportant": "false",
      "locX": "46.3701759",
      "locY": "-72.5392416999999",
      "pid": "P001853"
   },
   {
      "address": "664 bonaventure trois-rivieres g9a 2b7 ",
      "isFollowUpImportant": "false",
      "locX": "46.3451033",
      "locY": "-72.5466629",
      "pid": "P042715"
   },
   {
      "address": "664 bonaventure trois-rivieres g9a 2b7 ",
      "isFollowUpImportant": "false",
      "locX": "46.3451033",
      "locY": "-72.5466629",
      "pid": "P058590"
   },
   {
      "address": "455 st-paul trois-rivieres g9a 1h6 ",
      "isFollowUpImportant": "false",
      "locX": "46.34799",
      "locY": "-72.537903",
      "pid": "P049341"
   },
   {
      "address": "1550 pelletier trois-rivieres g9a 2g6 ",
      "isFollowUpImportant": "false",
      "locX": "46.3416532",
      "locY": "-72.540138",
      "pid": "P068405"
   },
   {
      "address": "3475 place ubald laforest trois-rivieres g8y4m2 ",
      "isFollowUpImportant": "true",
      "locX": "46.352664",
      "locY": "-72.595836",
      "pid": "P060771"
   },
   {
      "address": "3635 jean talon trois-rivieres g8y 2g8 ",
      "isFollowUpImportant": "true",
      "locX": "46.347834",
      "locY": "-72.585815",
      "pid": "P027876"
   },
   {
      "address": "4150 jacques de labadie trois-rivieres g8y 1t7 ",
      "isFollowUpImportant": "true",
      "locX": "46.356413",
      "locY": "-72.585264",
      "pid": "P081877"
   },
   {
      "address": "2054 de la jonquiere trois-rivieres g8z 2l3 ",
      "isFollowUpImportant": "false",
      "locX": "46.33912",
      "locY": "-72.5668819999999",
      "pid": "P071672"
   },
   {
      "address": "3050 baillargeon trois-rivieres g8z 4t6 ",
      "isFollowUpImportant": "true",
      "locX": "46.3400046",
      "locY": "-72.5616244",
      "pid": "P041259"
   },
   {
      "address": "1475 ste-marguerite trois-rivieres g8z 1w1 ",
      "isFollowUpImportant": "true",
      "locX": "46.3430915",
      "locY": "-72.5567297999999",
      "pid": "P039662"
   },
   {
      "address": "2100 ste-marguerite trois-rivieres g8z4n3 ",
      "isFollowUpImportant": "false",
      "locX": "46.3438264",
      "locY": "-72.5621924999999",
      "pid": "P030888"
   },
   {
      "address": "3150 ste-marguerite trois-rivieres g8z 2m1 ",
      "isFollowUpImportant": "true",
      "locX": "46.3441579",
      "locY": "-72.5677716999999",
      "pid": "P029364"
   },
   {
      "address": "1701 pelletier trois-rivieres g8z 2g9 ",
      "isFollowUpImportant": "true",
      "locX": "46.3397883",
      "locY": "-72.5620361",
      "pid": "P076421"
   },
   {
      "address": "220 bourassa trois-rivieres g9b 1c5 ",
      "isFollowUpImportant": "true",
      "locX": "46.3083144",
      "locY": "-72.5828278999999",
      "pid": "P087787"
   },
   {
      "address": "55 duval trois-rivieres g9b 1b4 ",
      "isFollowUpImportant": "true",
      "locX": "46.306177",
      "locY": "-72.578572",
      "pid": "P064260"
   },
   {
      "address": "903 RANG ST-NICOLAS, POINTE DU LAC, G0X 1Z0                                   ",
      "isFollowUpImportant": "false",
      "locX": "46.3313859999999",
      "locY": "-72.7648909999999",
      "pid": "P000786"
   },
   {
      "address": "241 chemin du lac des pins trois-rivieres g9b 6y9 ",
      "isFollowUpImportant": "false",
      "locX": "46.322396",
      "locY": "-72.66609",
      "pid": "P085711"
   },
   {
      "address": "2850 brodeur trois-rivieres g8z 4t7 ",
      "isFollowUpImportant": "false",
      "locX": "46.3308907",
      "locY": "-72.5924304999999",
      "pid": "P031073"
   },
   {
      "address": "2850 brodeur trois-rivieres g8z 4t7 ",
      "isFollowUpImportant": "false",
      "locX": "46.3308907",
      "locY": "-72.5924304999999",
      "pid": "P008038"
   },
   {
      "address": "2850 brodeur trois-rivieres g8z 4t7 ",
      "isFollowUpImportant": "false",
      "locX": "46.3308907",
      "locY": "-72.5924304999999",
      "pid": "P048114"
   },
   {
      "address": "3420 boul st-jean trois-rivieres g9a 5e1 ",
      "isFollowUpImportant": "false",
      "locX": "46.3681093",
      "locY": "-72.6622474999999",
      "pid": "P069585"
   },
   {
      "address": "3000 cote richelieu trois-rivieres g8z 3z1 ",
      "isFollowUpImportant": "false",
      "locX": "46.334666",
      "locY": "-72.5920039999999",
      "pid": "P001367"
   },
   {
      "address": "1350 Rue Aubuchon, Trois-Rivières, QC G8Y 6A8, Canada ",
      "isFollowUpImportant": "false",
      "locX": "46.3546509",
      "locY": "-72.5799329999999",
      "pid": "P087865"
   },
   {
      "address": "5490 jh fortier trois-rivieres g8y4n4 ",
      "isFollowUpImportant": "false",
      "locX": "46.3591713",
      "locY": "-72.5992967999999",
      "pid": "P048978"
   },
   {
      "address": "84 baribeau trois-rivieres g9c 1g8 ",
      "isFollowUpImportant": "true",
      "locX": "46.3910999999999",
      "locY": "-72.655883",
      "pid": "P066535"
   },
   {
      "address": "3915 Rue Jacques de Labadie, Trois-Rivières, QC G8Y 2R6, Canada",
      "isFollowUpImportant": "false",
      "locX": "46.3563722",
      "locY": "-72.5817137",
      "pid": "P005159"
   },
   {
      "address": "3915 Rue Jacques de Labadie, Trois-Rivières, QC G8Y 2R6, Canada ",
      "isFollowUpImportant": "true",
      "locX": "46.3563722",
      "locY": "-72.5817137",
      "pid": "P059993"
   },
   {
      "address": "3915 Rue Jacques de Labadie, Trois-Rivières, QC G8Y 2R6, Canada ",
      "isFollowUpImportant": "true",
      "locX": "46.3563722",
      "locY": "-72.5817137",
      "pid": "P071215"
   },
   {
      "address": "4245 Rue Monseigneur de Laval, Trois-Rivières, QC G8Y 1M9, Canada ",
      "isFollowUpImportant": "false",
      "locX": "46.3601189",
      "locY": "-72.5844088",
      "pid": "P074715"
   },
   {
      "address": "3470 Rue Louis Pasteur, Trois-Rivières, QC G8Z 4E9, Canada  ",
      "isFollowUpImportant": "false",
      "locX": "46.357357",
      "locY": "-72.5637653999999",
      "pid": "P002195"
   },
   {
      "address": "3170 louis pasteur trois-rivieres g8z 4e3 ",
      "isFollowUpImportant": "true",
      "locX": "46.3550827",
      "locY": "-72.5656591",
      "pid": "P050830"
   },
   {
      "address": "45 Rue des Merisiers, Trois-Rivières, QC G8V 1W9, Canada ",
      "isFollowUpImportant": "false",
      "locX": "46.401368",
      "locY": "-72.5047878",
      "pid": "P087750"
   },
   {
      "address": "1045 DES CHATAIGNIERS, TROIS-RIVIERES, G8Y 2J8 ",
      "isFollowUpImportant": "true",
      "locX": "46.3578908",
      "locY": "-72.5739237999999",
      "pid": "P084855"
   },
   {
      "address": "2850 Rue Brodeur, Trois-Rivières, QC G8Z 4T7, Canada ",
      "isFollowUpImportant": "true",
      "locX": "46.3308907",
      "locY": "-72.5924304999999",
      "pid": "P020001"
   },
   {
      "address": "3210 Côte Rosemont, Trois-Rivières, QC G8Y 4N6, Canada ",
      "isFollowUpImportant": "false",
      "locX": "46.3415449",
      "locY": "-72.5918305",
      "pid": "P087690"
   },
   {
      "address": "1381 Rue du Père Marquette, Trois-Rivières, QC G8Z 3N5, Canada",
      "isFollowUpImportant": "false",
      "locX": "46.3492161",
      "locY": "-72.5710014999999",
      "pid": "P070843"
   },
   {
      "address": "1034 Rue du Père Marquette, Trois-Rivières, QC G8Z 3M4, Canada",
      "isFollowUpImportant": "false",
      "locX": "46.3526363",
      "locY": "-72.5667662",
      "pid": "P032545"
   },
   {
      "address": "2975 Laviolette, Trois-Rivières, QC, Canada ",
      "isFollowUpImportant": "false",
      "locX": "46.3584399999999",
      "locY": "-72.565473",
      "pid": "P059781"
   },
   {
      "address": "2890 Rue de Francheville, Trois-Rivières, QC G8Z 1Z3, Canada ",
      "isFollowUpImportant": "false",
      "locX": "46.3471409",
      "locY": "-72.5684066",
      "pid": "P074997"
   },
   {
      "address": "1225 DES CYPRES, TROIS-RIVIERES, G8Y 2R5 ",
      "isFollowUpImportant": "false",
      "locX": "46.358208",
      "locY": "-72.5785359999999",
      "pid": "P044766"
   },
   {
      "address": "1305 Rue des Cyprès, Trois-Rivières, QC G8Y, Canada ",
      "isFollowUpImportant": "false",
      "locX": "46.3564124",
      "locY": "-72.5805982",
      "pid": "P004212"
   },
   {
      "address": "1330 1re Av, Trois-Rivières, QC G8Z 2X3, Canada",
      "isFollowUpImportant": "false",
      "locX": "46.349018",
      "locY": "-72.5532215",
      "pid": "P054326"
   },
   {
      "address": "800 Côte Richelieu, Trois-Rivières, QC G9A 6N3, Canada ",
      "isFollowUpImportant": "false",
      "locX": "46.32687",
      "locY": "-72.5784939999999",
      "pid": "P074560"
   },
   {
      "address": "760 GRENIER, TROIS-RIVIERES-OUEST, G9A 5T3 ",
      "isFollowUpImportant": "false",
      "locX": "46.3281236",
      "locY": "-72.5720504999999",
      "pid": "P034326"
   },
   {
      "address": "810 Rue Grenier, Trois-Rivières, QC G9A 5T3, Canada ",
      "isFollowUpImportant": "false",
      "locX": "46.3275327",
      "locY": "-72.5730322",
      "pid": "P072021"
   },
   {
      "address": "5930 Rue Marion, Trois-Rivières, QC G9A 6G6, Canada ",
      "isFollowUpImportant": "false",
      "locX": "46.3232972999999",
      "locY": "-72.5831585999999",
      "pid": "P087832"
   },
   {
      "address": "935 BERNARD, TROIS-RIVIERES-OUEST G9A 5R7                                   ",
      "isFollowUpImportant": "false",
      "locX": "46.3239634",
      "locY": "-72.5789029999999",
      "pid": "P073009"
   },
   {
      "address": "6080 marion trois-rivieres g9a 6h6 ",
      "isFollowUpImportant": "true",
      "locX": "46.3205681",
      "locY": "-72.5807409",
      "pid": "P036637"
   },
   {
      "address": "8600 Rue du Fondeur, Trois-Rivières, QC G8Y 5J7, Canada ",
      "isFollowUpImportant": "false",
      "locX": "46.3829773",
      "locY": "-72.6331814",
      "pid": "P028767"
   },
   {
      "address": "920 Rue Principale, Saint-Étienne-des-Grès, QC G0X, Canada ",
      "isFollowUpImportant": "true",
      "locX": "46.4337942",
      "locY": "-72.7647739999999",
      "pid": "P061240"
   },
   {
      "address": "340 Rue Louis, Saint-Étienne-des-Grès, QC G0X 2P0, Canada ",
      "isFollowUpImportant": "false",
      "locX": "46.391461",
      "locY": "-72.7528419999999",
      "pid": "P071127"
   },
   {
      "address": "5365 Rue Romeo Martel, Trois-Rivières, QC G8Y 4Y3, Canada ",
      "isFollowUpImportant": "false",
      "locX": "46.3566537",
      "locY": "-72.5999504",
      "pid": "P030870"
   },
   {
      "address": "4665 BLD CHANOINE MOREAU, TROIS-RIVIERES, G8Y 1S2                  ",
      "isFollowUpImportant": "false",
      "locX": "46.360944",
      "locY": "-72.5882839999999",
      "pid": "P087756"
   },
   {
      "address": "1655 PLACE LEGARE, TROIS-RIVIERES, G9C 1B6                                  ",
      "isFollowUpImportant": "true",
      "locX": "46.393285",
      "locY": "-72.6561603999999",
      "pid": "P000420"
   },
   {
      "address": "400 Rue Chapais, Trois-Rivières, QC G8Y 5T8, Canada ",
      "isFollowUpImportant": "false",
      "locX": "46.3702873",
      "locY": "-72.5915951",
      "pid": "P086015"
   },
   {
      "address": "4307 Rue Notre Dame O, Trois-Rivières, QC G9A 4Z4, Canada",
      "isFollowUpImportant": "false",
      "locX": "46.321816",
      "locY": "-72.5605239999999",
      "pid": "P057364"
   },
   {
      "address": "755 Rue Carrier, Trois-Rivières, QC G9A 5W6, Canada ",
      "isFollowUpImportant": "false",
      "locX": "46.3288047",
      "locY": "-72.5721508",
      "pid": "P049858"
   },
   {
      "address": "690 J,E, JANVIER (RIVARD), TROIS-RIVIERES-OUEST, G9A 2Y2 ",
      "isFollowUpImportant": "true",
      "locX": "46.3278202999999",
      "locY": "-72.5703092",
      "pid": "P075418"
   },
   {
      "address": "883 Rue Riopel, Trois-Rivières, QC G9A 5R2, Canada ",
      "isFollowUpImportant": "false",
      "locX": "46.324872",
      "locY": "-72.5772309999999",
      "pid": "P040315"
   },
   {
      "address": "1030 Rue Viau, Trois-Rivières, QC G9A 6P4, Canada",
      "isFollowUpImportant": "true",
      "locX": "46.3260011",
      "locY": "-72.580286",
      "pid": "P076205"
   },
   {
      "address": "5965 Rue Bellefeuille, Trois-Rivières, QC G9A 6G7, Canada",
      "isFollowUpImportant": "false",
      "locX": "46.3211939",
      "locY": "-72.5772733",
      "pid": "P070215"
   },
   {
      "address": "692 Rue Niverville, Trois-Rivières, QC G9A 2A6, Canada",
      "isFollowUpImportant": "false",
      "locX": "46.3457551",
      "locY": "-72.5470338",
      "pid": "P055875"
   },
   {
      "address": "664 BONAVENTURE, TROIS-RIVIERES, G9A 2B7                                    ",
      "isFollowUpImportant": "false",
      "locX": "46.3451033",
      "locY": "-72.5466629",
      "pid": "P079681"
   },
   {
      "address": "456 NIVERVILLE, TROIS-RIVIERES, G9A 2A2 ",
      "isFollowUpImportant": "false",
      "locX": "46.344903",
      "locY": "-72.5436899999999",
      "pid": "P063550"
   },
   {
      "address": "456 Rue Niverville, Trois-Rivières, QC G9A 2A2, Canada",
      "isFollowUpImportant": "false",
      "locX": "46.344903",
      "locY": "-72.5436899999999",
      "pid": "P051800"
   },
   {
      "address": "645 bonaventure trois-rivieres g9a 2b8 ",
      "isFollowUpImportant": "false",
      "locX": "46.344895",
      "locY": "-72.5464999999999",
      "pid": "P029138"
   },
   {
      "address": "961 LAVERENDRYE, TROIS-RIVIERES,  G9A 2S9                                      ",
      "isFollowUpImportant": "false",
      "locX": "46.3392304",
      "locY": "-72.5537021999999",
      "pid": "P010766"
   },
   {
      "address": "200 st-francois-xavier, trois-rivieres g9a 1p7",
      "isFollowUpImportant": "false",
      "locX": "46.3449495",
      "locY": "-72.5385197",
      "pid": "P051179"
   },
   {
      "address": "1522 ste-julie trois-rivieres g9a 1y8",
      "isFollowUpImportant": "false",
      "locX": "46.3525614",
      "locY": "-72.5512545",
      "pid": "P054188"
   },
   {
      "address": "904 ste-julie, trois-rivieres, G9A 1y2",
      "isFollowUpImportant": "false",
      "locX": "46.3484406",
      "locY": "-72.5465452999999",
      "pid": "P008426"
   },
   {
      "address": "950 royale, trois-rivieres, G9A 4H8",
      "isFollowUpImportant": "false",
      "locX": "46.3455925",
      "locY": "-72.5427166",
      "pid": "P002735"
   },
   {
      "address": "248 hertel trois-rivieres g9a 1g2",
      "isFollowUpImportant": "false",
      "locX": "46.346706",
      "locY": "-72.5351059999999",
      "pid": "P044567"
   },
   {
      "address": "3915 jacques de labadie trois-rivieres ",
      "isFollowUpImportant": "true",
      "locX": "46.3563722",
      "locY": "-72.5817137",
      "pid": "P004912"
   },
   {
      "address": "2855 laviolette trois-rivieres g8z 1e8",
      "isFollowUpImportant": "false",
      "locX": "46.3581721",
      "locY": "-72.5641802",
      "pid": "P067657"
   },
   {
      "address": "1368 boul, des chenaux, trois-rivieres g9a 1a1",
      "isFollowUpImportant": "false",
      "locX": "46.3572623",
      "locY": "-72.5405516999999",
      "pid": "P061053"
   },
   {
      "address": "835 st-maurice trois-rivieres G9a 3p7",
      "isFollowUpImportant": "false",
      "locX": "46.3517563",
      "locY": "-72.5463940999999",
      "pid": "P063240"
   },
   {
      "address": "829 st-jacques trois-rivieres g9a3k8",
      "isFollowUpImportant": "false",
      "locX": "46.3563233",
      "locY": "-72.5521976",
      "pid": "P084544"
   },
   {
      "address": "761 william trois-rivieres g9a 3j6",
      "isFollowUpImportant": "false",
      "locX": "46.3574829999999",
      "locY": "-72.5528941",
      "pid": "P050267"
   },
   {
      "address": "455 st-paul trois-rivieres g9a1h6",
      "isFollowUpImportant": "false",
      "locX": "46.34799",
      "locY": "-72.537903",
      "pid": "P065750"
   },
   {
      "address": "455 st-paul trois-rivieres g9a 1h6",
      "isFollowUpImportant": "false",
      "locX": "46.34799",
      "locY": "-72.537903",
      "pid": "P007922"
   },
   {
      "address": "1935 lajoie trois-rivieres g8z 3g1",
      "isFollowUpImportant": "false",
      "locX": "46.355337",
      "locY": "-72.5597229999999",
      "pid": "P046424"
   },
   {
      "address": "455 st-paul trois-rivieres g9a1h6 ",
      "isFollowUpImportant": "false",
      "locX": "46.34799",
      "locY": "-72.537903",
      "pid": "P041827"
   },
   {
      "address": "1793 pelletier trois-rivieres G8z 2l1",
      "isFollowUpImportant": "false",
      "locX": "46.3402876",
      "locY": "-72.5627511999999",
      "pid": "P080458"
   },
   {
      "address": "475 ste-marguerite trois-rivieres g8z 1w1",
      "isFollowUpImportant": "false",
      "locX": "46.3427527",
      "locY": "-72.5502862999999",
      "pid": "P086222"
   },
   {
      "address": "1700 père daniel trois-rivieres G8z 2k3",
      "isFollowUpImportant": "false",
      "locX": "46.3383429999999",
      "locY": "-72.5642159999999",
      "pid": "P058691"
   },
   {
      "address": "2394 père daniel trois-rivieres G8z 2k5",
      "isFollowUpImportant": "false",
      "locX": "46.3407193",
      "locY": "-72.5673645",
      "pid": "P001581"
   },
   {
      "address": "1700 ste-marguerite trois-rivieres g8z 4n3",
      "isFollowUpImportant": "false",
      "locX": "46.3436117",
      "locY": "-72.5593855999999",
      "pid": "P025173"
   },
   {
      "address": "427 jeanne-mance trois-rivieres g9b 1h1",
      "isFollowUpImportant": "false",
      "locX": "46.3091309",
      "locY": "-72.5906057999999",
      "pid": "P031967"
   },
   {
      "address": "8480 notre-dame trois-rivieres g9b 2j2",
      "isFollowUpImportant": "true",
      "locX": "46.298783",
      "locY": "-72.6094459999999",
      "pid": "P062025"
   },
   {
      "address": "8720 notre dame trois-rivieres g9a 5c9",
      "isFollowUpImportant": "false",
      "locX": "46.3139979",
      "locY": "-72.5742584999999",
      "pid": "P074886"
   },
   {
      "address": "1220 rang st-joseph trois-rivieres g0x 1z0",
      "isFollowUpImportant": "true",
      "locX": "46.4686543",
      "locY": "-72.4407143999999",
      "pid": "P005284"
   },
   {
      "address": "226 duval trois-rivieres g9b 1b7",
      "isFollowUpImportant": "true",
      "locX": "46.3087806",
      "locY": "-72.5820807",
      "pid": "P081676"
   },
   {
      "address": "3180 DAUVERGNE, TROIS-RIVIERES-OUEST, G8Y 3K9 ",
      "isFollowUpImportant": "false",
      "locX": "46.3381684999999",
      "locY": "-72.5961007999999",
      "pid": "P086566"
   },
   {
      "address": "3707 de l'erabliere trois-rivieres g8y 6x3",
      "isFollowUpImportant": "false",
      "locX": "46.3378189999999",
      "locY": "-72.6101989999999",
      "pid": "P083070"
   },
   {
      "address": "4600 COTE ROSEMONT, TROIS-RIVIERES-OUEST, G8Y 6Z5",
      "isFollowUpImportant": "false",
      "locX": "46.3533291",
      "locY": "-72.6090097",
      "pid": "P021030"
   },
   {
      "address": "3915 Rue Jacques de Labadie, Trois-Rivières, QC G8Y 2R6, Canada",
      "isFollowUpImportant": "true",
      "locX": "46.3563722",
      "locY": "-72.5817137",
      "pid": "P048648"
   },
   {
      "address": "3915 Rue Jacques de Labadie, Trois-Rivières, QC G8Y 2R6, Canada",
      "isFollowUpImportant": "true",
      "locX": "46.3563722",
      "locY": "-72.5817137",
      "pid": "P063111"
   },
   {
      "address": "3356 Rue Provencher, Trois-Rivières, QC G8Z 1N3, Canada",
      "isFollowUpImportant": "true",
      "locX": "46.3568159999999",
      "locY": "-72.5716719999999",
      "pid": "P009641"
   },
   {
      "address": "1220 Rue des Cyprès, Trois-Rivières, QC G8Y 2R4, Canada",
      "isFollowUpImportant": "false",
      "locX": "46.3583086",
      "locY": "-72.5789146999999",
      "pid": "P087718"
   },
   {
      "address": "3845 Boulevard des Chenaux, Trois-Rivières, QC G8Y 1A6, Canada",
      "isFollowUpImportant": "false",
      "locX": "46.3656394",
      "locY": "-72.5711251",
      "pid": "P077077"
   },
   {
      "address": "2625 Rue Marie Leneuf, Trois-Rivières, QC G8Z, Canada",
      "isFollowUpImportant": "true",
      "locX": "46.361154",
      "locY": "-72.5634031",
      "pid": "P085732"
   },
   {
      "address": "2975 laviolette trois-rivieres g8z 1e8",
      "isFollowUpImportant": "false",
      "locX": "46.3584141",
      "locY": "-72.5652844999999",
      "pid": "P031379"
   },
   {
      "address": "2975 Laviolette, Trois-Rivières, QC, Canada",
      "isFollowUpImportant": "false",
      "locX": "46.3584399999999",
      "locY": "-72.565473",
      "pid": "P028711"
   },
   {
      "address": "2975 Laviolette, Trois-Rivières, QC, Canada",
      "isFollowUpImportant": "false",
      "locX": "46.3584399999999",
      "locY": "-72.565473",
      "pid": "P048454"
   },
   {
      "address": "2855 laviolette trois-rivieres g8z 1e8",
      "isFollowUpImportant": "false",
      "locX": "46.3581721",
      "locY": "-72.5641802",
      "pid": "P047760"
   },
   {
      "address": "2100 Rue Fortin, Trois-Rivières, QC G8Z, Canada",
      "isFollowUpImportant": "false",
      "locX": "46.3447021",
      "locY": "-72.5644232999999",
      "pid": "P086664"
   },
   {
      "address": "3825 Rue Jacques de Labadie, Trois-Rivières, QC G8Y 4Y2, Canada",
      "isFollowUpImportant": "false",
      "locX": "46.3555658",
      "locY": "-72.5807059999999",
      "pid": "P063289"
   },
   {
      "address": "4100 SAVARD, TROIS-RIVIERES, G8Y 4B8                   ",
      "isFollowUpImportant": "true",
      "locX": "46.3522261",
      "locY": "-72.5924953",
      "pid": "P008057"
   },
   {
      "address": "1880 LOUIS-GOUIN, TROIS-RIVIERES, G8Y 2L5                      ",
      "isFollowUpImportant": "true",
      "locX": "46.3504101",
      "locY": "-72.5866954",
      "pid": "P030756"
   },
   {
      "address": "3400 Rue Louis Pasteur, Trois-Rivières, QC G8Z 4E3, Canada",
      "isFollowUpImportant": "false",
      "locX": "46.356836",
      "locY": "-72.5644194999999",
      "pid": "P002541"
   },
   {
      "address": "3381 LOUIS-PASTEUR, TROIS-RIVIERES, G8Z 4E4                  ",
      "isFollowUpImportant": "true",
      "locX": "46.356598",
      "locY": "-72.5654673",
      "pid": "P065538"
   },
   {
      "address": "3415 LOUIS-PASTEUR, TROIS-RIVIERES, G8Z 4E4                     ",
      "isFollowUpImportant": "false",
      "locX": "46.35755",
      "locY": "-72.5640839",
      "pid": "P030563"
   },
   {
      "address": "800 Côte Richelieu, Trois-Rivières, QC G9A 6N3, Canada",
      "isFollowUpImportant": "false",
      "locX": "46.32687",
      "locY": "-72.5784939999999",
      "pid": "P059387"
   },
   {
      "address": "800 Côte Richelieu, Trois-Rivières, QC G9A 6N3, Canada",
      "isFollowUpImportant": "false",
      "locX": "46.32687",
      "locY": "-72.5784939999999",
      "pid": "P047213"
   },
   {
      "address": "800 Côte Richelieu, Trois-Rivières, QC G9A 6N3, Canada",
      "isFollowUpImportant": "false",
      "locX": "46.32687",
      "locY": "-72.5784939999999",
      "pid": "P074414"
   },
   {
      "address": "800 Côte Richelieu, Trois-Rivières, QC G9A 6N3, Canada",
      "isFollowUpImportant": "false",
      "locX": "46.32687",
      "locY": "-72.5784939999999",
      "pid": "P038909"
   },
   {
      "address": "800 Côte Richelieu, Trois-Rivières, QC G9A 6N3, Canada",
      "isFollowUpImportant": "false",
      "locX": "46.32687",
      "locY": "-72.5784939999999",
      "pid": "P073486"
   },
   {
      "address": "800 Côte Richelieu, Trois-Rivières, QC G9A 6N3, Canada",
      "isFollowUpImportant": "false",
      "locX": "46.32687",
      "locY": "-72.5784939999999",
      "pid": "P085215"
   },
   {
      "address": "155 Rue Garceau, Trois-Rivières, QC G9A 2X7, Canada",
      "isFollowUpImportant": "false",
      "locX": "46.3224338",
      "locY": "-72.5623875",
      "pid": "P087880"
   },
   {
      "address": "5955 Rue Corbeil, Trois-Rivières, QC G8Z 4T3, Canada",
      "isFollowUpImportant": "false",
      "locX": "46.3280365",
      "locY": "-72.5895365",
      "pid": "P050569"
   },
   {
      "address": "445 lacerte trois-rivieres g9a 3c1",
      "isFollowUpImportant": "false",
      "locX": "46.3204409",
      "locY": "-72.5735796999999",
      "pid": "P068595"
   },
   {
      "address": "142 Rue Saint Joseph, Saint-Étienne-des-Grès, QC G0X 2P0, Canada",
      "isFollowUpImportant": "false",
      "locX": "46.44131",
      "locY": "-72.7681989999999",
      "pid": "P072900"
   },
   {
      "address": "1281 Rue Principale, Saint-Étienne-des-Grès, QC G0X, Canada",
      "isFollowUpImportant": "false",
      "locX": "46.4405095",
      "locY": "-72.7738188",
      "pid": "P063954"
   },
   {
      "address": "8220 Boulevard des Forges, Trois-Rivières, QC G8Y 4W2, Canada",
      "isFollowUpImportant": "false",
      "locX": "46.3799941",
      "locY": "-72.624052",
      "pid": "P011717"
   },
   {
      "address": "1595 LÉON BALCER, TROIS-RIVIERES, G8Y 7E1                      ",
      "isFollowUpImportant": "false",
      "locX": "46.3786081",
      "locY": "-72.6243023",
      "pid": "P087387"
   },
   {
      "address": "193 beaudry trois-rivieres g9a 2y8",
      "isFollowUpImportant": "false",
      "locX": "46.3213885",
      "locY": "-72.5651007",
      "pid": "P000755"
   },
   {
      "address": "415 Rue des Dominicains, Trois-Rivières, QC G9A 3A5, Canada",
      "isFollowUpImportant": "false",
      "locX": "46.3217921",
      "locY": "-72.5709253999999",
      "pid": "P054969"
   },
   {
      "address": "720 Côte Richelieu, Trois-Rivières, QC G9A 5T2, Canada",
      "isFollowUpImportant": "false",
      "locX": "46.3270296",
      "locY": "-72.5746681",
      "pid": "P048160"
   },
   {
      "address": "4840 Rue Herve Biron, Trois-Rivières, QC G8Y 4X8, Canada",
      "isFollowUpImportant": "false",
      "locX": "46.357373",
      "locY": "-72.5979419999999",
      "pid": "P087613"
   },
   {
      "address": "1525 Rue Calixa Lavallée, Trois-Rivières, QC G8Y 3G1, Canada",
      "isFollowUpImportant": "false",
      "locX": "46.373176",
      "locY": "-72.6116559999999",
      "pid": "P076061"
   },
   {
      "address": "1275 16e Rue, Trois-Rivières, QC G8Y 3B4, Canada",
      "isFollowUpImportant": "true",
      "locX": "46.3664621",
      "locY": "-72.5944845999999",
      "pid": "P007950"
   },
   {
      "address": "2075 Boulevard Hamelin, Trois-Rivières, QC G8Y, Canada",
      "isFollowUpImportant": "false",
      "locX": "46.3658693",
      "locY": "-72.6200131",
      "pid": "P006822"
   },
   {
      "address": "1700 Rue Leo Pidgeon, Trois-Rivières, QC G8Y 5L9, Canada",
      "isFollowUpImportant": "false",
      "locX": "46.3589409999999",
      "locY": "-72.5937369999999",
      "pid": "P081652"
   },
   {
      "address": "5532 Rue Jean Paul Lavergne, Trois-Rivières, QC G8Y 3Y4, Canada",
      "isFollowUpImportant": "false",
      "locX": "46.356366",
      "locY": "-72.6060689999999",
      "pid": "P008379"
   },
   {
      "address": "456 Rue Niverville, Trois-Rivières, QC G9A 2A2, Canada",
      "isFollowUpImportant": "false",
      "locX": "46.344903",
      "locY": "-72.5436899999999",
      "pid": "P027173"
   },
   {
      "address": "388 Rue de la Cathédrale, Trois-Rivières, QC G9A 1X3, Canada",
      "isFollowUpImportant": "false",
      "locX": "46.3450123",
      "locY": "-72.5422325",
      "pid": "P001521"
   },
   {
      "address": "508 Rue Niverville, Trois-Rivières, QC G9A 2A2, Canada",
      "isFollowUpImportant": "false",
      "locX": "46.3451359",
      "locY": "-72.5446749999999",
      "pid": "P046380"
   },
   {
      "address": "648 Rue Saint Roch, Trois-Rivières, QC G9A 2M2, Canada",
      "isFollowUpImportant": "false",
      "locX": "46.3413048",
      "locY": "-72.5482107999999",
      "pid": "P041563"
   },
   {
      "address": "2205 CONRAD-GODIN, TROIS-RIVIERES, G8Y 7N3                                   ",
      "isFollowUpImportant": "false",
      "locX": "46.362837",
      "locY": "-72.6196539999999",
      "pid": "P084471"
   },
   {
      "address": "1752 PAUL SAUVE, TROIS-RIVIERES, G8Y 2C3",
      "isFollowUpImportant": "false",
      "locX": "46.36211",
      "locY": "-72.6008109",
      "pid": "P051228"
   },
   {
      "address": "5535 Rue Arthur Beliveau, Trois-Rivières, QC G8Y 4N2, Canada",
      "isFollowUpImportant": "false",
      "locX": "46.3614557999999",
      "locY": "-72.5982606",
      "pid": "P001906"
   },
   {
      "address": "5245 Rue Leo Pidgeon, Trois-Rivières, QC G8Y 5R9, Canada",
      "isFollowUpImportant": "false",
      "locX": "46.3602181",
      "locY": "-72.5937337",
      "pid": "P083286"
   }
]